\relax 
\providecommand\hyper@newdestlabel[2]{}
\providecommand\HyperFirstAtBeginDocument{\AtBeginDocument}
\HyperFirstAtBeginDocument{\ifx\hyper@anchor\@undefined
\global\let\oldcontentsline\contentsline
\gdef\contentsline#1#2#3#4{\oldcontentsline{#1}{#2}{#3}}
\global\let\oldnewlabel\newlabel
\gdef\newlabel#1#2{\newlabelxx{#1}#2}
\gdef\newlabelxx#1#2#3#4#5#6{\oldnewlabel{#1}{{#2}{#3}}}
\AtEndDocument{\ifx\hyper@anchor\@undefined
\let\contentsline\oldcontentsline
\let\newlabel\oldnewlabel
\fi}
\fi}
\global\let\hyper@last\relax 
\gdef\HyperFirstAtBeginDocument#1{#1}
\providecommand\HyField@AuxAddToFields[1]{}
\providecommand\HyField@AuxAddToCoFields[2]{}
\providecommand \oddpage@label [2]{}
\citation{backes}
\citation{backes}
\@writefile{toc}{\baselineskip =0.7\baselineskip }
\@writefile{toc}{\contentsline {chapter}{List of Tables}{vii}{chapter*.2}}
\@writefile{lot}{\addcontentsline {toc}{chapter}{List of Tables}}
\@writefile{lot}{\baselineskip =0.7\baselineskip }
\@writefile{toc}{\contentsline {chapter}{List of Figures}{viii}{chapter*.3}}
\@writefile{lof}{\addcontentsline {toc}{chapter}{List of Figures}}
\@writefile{lof}{\baselineskip =0.7\baselineskip }
\@writefile{toc}{\contentsline {chapter}{Abstract}{x}{chapter*.4}}
\gdef \LT@i {\LT@entry 
    {3}{70.80676pt}\LT@entry 
    {3}{272.17465pt}}
\@writefile{toc}{\contentsline {chapter}{List of Abbreviations and Symbols Used}{xi}{chapter*.5}}
\@writefile{toc}{\contentsline {chapter}{Acknowledgements}{xii}{chapter*.6}}
\citation{estonia1}
\citation{estonia2}
\citation{southafrica}
\citation{brazil}
\citation{india}
\citation{csereport}
\citation{secthevote}
\citation{floridarecount}
\citation{steinrecount}
\citation{jnu}
\@writefile{toc}{\contentsline {chapter}{\numberline {Chapter 1}Introduction}{1}{chapter.1}}
\@writefile{toc}{\addvspace {10\p@ }}
\@writefile{lof}{\addvspace {10\p@ }}
\@writefile{lot}{\addvspace {10\p@ }}
\citation{jcj}
\citation{jif}
\citation{civitas}
\citation{smith1}
\citation{smith2}
\citation{smith3}
\citation{araujo1}
\citation{araujo2}
\citation{araujo3}
\@writefile{toc}{\addvspace {10\p@ }}
\@writefile{toc}{\contentsline {section}{\numberline {1.1}The Voting Problem}{2}{section.1.1}}
\@writefile{toc}{\addvspace {10\p@ }}
\@writefile{toc}{\contentsline {section}{\numberline {1.2}Coercion-Resistant Elections}{2}{section.1.2}}
\citation{spycher}
\citation{spycher}
\citation{jcj}
\@writefile{toc}{\addvspace {10\p@ }}
\@writefile{toc}{\contentsline {section}{\numberline {1.3}Contribution of this Thesis}{3}{section.1.3}}
\@writefile{toc}{\addvspace {10\p@ }}
\@writefile{toc}{\contentsline {section}{\numberline {1.4}Outline of the Thesis}{3}{section.1.4}}
\citation{hansen1999athenian}
\citation{medievalvenice}
\citation{caleb}
\citation{caleb}
\citation{canadavoting}
\citation{canadavoting2}
\citation{canadavoting3}
\citation{victoria}
\@writefile{toc}{\contentsline {chapter}{\numberline {Chapter 2}Background}{4}{chapter.2}}
\@writefile{toc}{\addvspace {10\p@ }}
\@writefile{lof}{\addvspace {10\p@ }}
\@writefile{lot}{\addvspace {10\p@ }}
\newlabel{chap:background}{{2}{4}{Outline of the Thesis}{chapter.2}{}}
\@writefile{toc}{\addvspace {10\p@ }}
\@writefile{toc}{\contentsline {section}{\numberline {2.1}A Peek Into Democracy and Voting}{4}{section.2.1}}
\citation{newyork1892}
\citation{punchcard1960}
\citation{harris1966}
\citation{punchscan}
\@writefile{lof}{\contentsline {figure}{\numberline {2.1}{\ignorespaces ``The County Election'' by George Caleb}}{5}{figure.caption.7}}
\providecommand*\caption@xref[2]{\@setref\relax\@undefined{#1}}
\newlabel{fig:caleb}{{2.1}{5}{``The County Election'' by George Caleb}{figure.caption.7}{}}
\citation{adida2006}
\citation{publicevidence}
\@writefile{toc}{\addvspace {10\p@ }}
\@writefile{toc}{\contentsline {section}{\numberline {2.2}What Makes Voting Hard?}{6}{section.2.2}}
\@writefile{toc}{\contentsline {subsection}{\numberline {2.2.1}Lack of Trust}{6}{subsection.2.2.1}}
\@writefile{toc}{\contentsline {subsection}{\numberline {2.2.2}Evidence and Receipts}{6}{subsection.2.2.2}}
\citation{warren}
\citation{publicevidence}
\@writefile{toc}{\contentsline {subsection}{\numberline {2.2.3}Secrecy}{7}{subsection.2.2.3}}
\@writefile{toc}{\contentsline {subsection}{\numberline {2.2.4}Auditable Tallying}{7}{subsection.2.2.4}}
\citation{Norden}
\citation{MarkSense}
\citation{kiayias2006security}
\citation{adida2019}
\citation{brazil}
\citation{india}
\citation{malaysia}
\citation{germany}
\citation{netherlands}
\citation{ireland}
\citation{UK}
\citation{dreaccessibility}
\citation{dre}
\@writefile{toc}{\addvspace {10\p@ }}
\@writefile{toc}{\contentsline {section}{\numberline {2.3}Technology and Elections}{8}{section.2.3}}
\newlabel{section: technology}{{2.3}{8}{Technology and Elections}{section.2.3}{}}
\@writefile{toc}{\contentsline {subsection}{\numberline {2.3.1}Optical Scanners}{8}{subsection.2.3.1}}
\@writefile{toc}{\contentsline {subsection}{\numberline {2.3.2}Direct Record Electronic Voting Machine}{8}{subsection.2.3.2}}
\citation{bmdre}
\citation{floridarecount}
\citation{csereport}
\citation{InternetVoting1}
\citation{estonia1}
\citation{estonia2}
\citation{southafrica}
\citation{publicevidence}
\@writefile{toc}{\contentsline {subsection}{\numberline {2.3.3}Ballot Marking Devices}{9}{subsection.2.3.3}}
\@writefile{toc}{\contentsline {subsection}{\numberline {2.3.4}Internet and Remote Voting}{9}{subsection.2.3.4}}
\citation{selene}
\citation{benalohchallenge}
\citation{jcj}
\citation{civitas}
\@writefile{toc}{\contentsline {chapter}{\numberline {Chapter 3}Literature Survey}{10}{chapter.3}}
\@writefile{toc}{\addvspace {10\p@ }}
\@writefile{lof}{\addvspace {10\p@ }}
\@writefile{lot}{\addvspace {10\p@ }}
\newlabel{chap:relatedwork}{{3}{10}{Internet and Remote Voting}{chapter.3}{}}
\@writefile{toc}{\addvspace {10\p@ }}
\@writefile{toc}{\contentsline {section}{\numberline {3.1}Internet Voting Schemes and Protocols}{10}{section.3.1}}
\@writefile{toc}{\contentsline {subsection}{\numberline {3.1.1}Selene}{10}{subsection.3.1.1}}
\citation{hirtandsako}
\citation{helios}
\citation{benalohchallenge}
\@writefile{toc}{\contentsline {subsection}{\numberline {3.1.2}Civitas}{11}{subsection.3.1.2}}
\@writefile{toc}{\contentsline {subsection}{\numberline {3.1.3}Helios}{11}{subsection.3.1.3}}
\citation{heliosuni}
\citation{pret}
\citation{chaumuntraceable}
\citation{punchscan}
\citation{scantegrity}
\@writefile{toc}{\contentsline {subsection}{\numberline {3.1.4}Pr{\^e}t {\`a} Voter}{12}{subsection.3.1.4}}
\@writefile{toc}{\contentsline {subsection}{\numberline {3.1.5}Scantegrity II}{12}{subsection.3.1.5}}
\citation{jcj}
\citation{jcj}
\@writefile{toc}{\addvspace {10\p@ }}
\@writefile{toc}{\contentsline {section}{\numberline {3.2}Extending Receipt Freeness}{13}{section.3.2}}
\@writefile{toc}{\addvspace {10\p@ }}
\@writefile{toc}{\contentsline {section}{\numberline {3.3}The JCJ Protocol}{13}{section.3.3}}
\citation{civitas}
\citation{spycher}
\citation{jcj}
\citation{jcj}
\citation{jcj}
\citation{civitas}
\citation{civitas}
\citation{civitas}
\@writefile{toc}{\addvspace {10\p@ }}
\@writefile{toc}{\contentsline {section}{\numberline {3.4}Civitas}{16}{section.3.4}}
\newlabel{sec:civitas}{{3.4}{16}{Civitas}{section.3.4}{}}
\@writefile{lof}{\contentsline {figure}{\numberline {3.1}{\ignorespaces Civitas Architecture}}{17}{figure.caption.8}}
\newlabel{fig:civitas_architecture}{{3.1}{17}{Civitas Architecture}{figure.caption.8}{}}
\citation{civitas}
\citation{jif}
\citation{smith1}
\citation{smith2}
\citation{smith3}
\@writefile{toc}{\addvspace {10\p@ }}
\@writefile{toc}{\contentsline {section}{\numberline {3.5}Proposed Improvements to the JCJ Protocol}{18}{section.3.5}}
\citation{araujo2}
\citation{civitas}
\citation{smithattack}
\citation{araujo1}
\citation{araujo2}
\citation{araujo3}
\citation{camenisch}
\@writefile{toc}{\contentsline {subsubsection}{Suggestions by Smith and Weber}{19}{section*.9}}
\@writefile{toc}{\contentsline {subsubsection}{Suggestions by Araujo et al.}{19}{section*.10}}
\citation{selections}
\citation{panicpasswords}
\citation{spycher}
\citation{araujo1}
\citation{smith1}
\citation{smith1}
\citation{smith2}
\citation{smith3}
\@writefile{toc}{\contentsline {subsubsection}{Selections}{20}{section*.11}}
\@writefile{toc}{\contentsline {subsubsection}{Suggestions by Spycher et al.}{20}{section*.12}}
\citation{araujo1}
\citation{araujo2}
\citation{araujo3}
\citation{smith1}
\citation{smith2}
\citation{smith3}
\@writefile{toc}{\addvspace {10\p@ }}
\@writefile{toc}{\contentsline {section}{\numberline {3.6}Research Objectives}{21}{section.3.6}}
\citation{spycher}
\citation{jcj}
\@writefile{toc}{\contentsline {chapter}{\numberline {Chapter 4}The Proposed Protocol}{22}{chapter.4}}
\@writefile{toc}{\addvspace {10\p@ }}
\@writefile{lof}{\addvspace {10\p@ }}
\@writefile{lot}{\addvspace {10\p@ }}
\newlabel{chap:proposedprotocol}{{4}{22}{Research Objectives}{chapter.4}{}}
\@writefile{toc}{\addvspace {10\p@ }}
\@writefile{toc}{\contentsline {section}{\numberline {4.1}Overview of the Process}{22}{section.4.1}}
\newlabel{sec:proposed_protocol}{{4.1}{22}{Overview of the Process}{section.4.1}{}}
\@writefile{lof}{\contentsline {figure}{\numberline {4.1}{\ignorespaces Voter Interaction with Resist's entities\relax }}{23}{figure.caption.13}}
\newlabel{fig:my_label}{{4.1}{23}{Voter Interaction with Resist's entities\relax }{figure.caption.13}{}}
\@writefile{toc}{\addvspace {10\p@ }}
\@writefile{toc}{\contentsline {section}{\numberline {4.2}Players}{24}{section.4.2}}
\newlabel{fig:bulletinboard}{{\caption@xref {fig:bulletinboard}{ on input line 537}}{24}{Players}{figure.caption.14}{}}
\@writefile{lof}{\contentsline {figure}{\numberline {4.2}{\ignorespaces Resist's Indexed Bulletin Board across phases\relax }}{24}{figure.caption.14}}
\@writefile{toc}{\contentsline {subsection}{\numberline {4.2.1}Supervisor}{24}{subsection.4.2.1}}
\@writefile{toc}{\contentsline {subsection}{\numberline {4.2.2}Authentication Teller}{24}{subsection.4.2.2}}
\@writefile{toc}{\contentsline {subsection}{\numberline {4.2.3}Registration Teller}{25}{subsection.4.2.3}}
\@writefile{toc}{\contentsline {subsection}{\numberline {4.2.4} Voter}{25}{subsection.4.2.4}}
\@writefile{toc}{\contentsline {subsection}{\numberline {4.2.5}Coercer}{26}{subsection.4.2.5}}
\@writefile{toc}{\addvspace {10\p@ }}
\@writefile{toc}{\contentsline {section}{\numberline {4.3}Setup Phases}{26}{section.4.3}}
\@writefile{toc}{\contentsline {subsection}{\numberline {4.3.1}System Setup Phase}{26}{subsection.4.3.1}}
\@writefile{toc}{\contentsline {subsubsection}{Supervisor Setup}{26}{section*.15}}
\@writefile{toc}{\contentsline {subsubsection}{Voter Authentication}{27}{section*.16}}
\@writefile{toc}{\contentsline {subsection}{\numberline {4.3.2}Election Phase}{27}{subsection.4.3.2}}
\@writefile{toc}{\contentsline {subsubsection}{Election Creation Phase}{27}{section*.17}}
\@writefile{toc}{\contentsline {subsubsection}{Registration Phase}{28}{section*.18}}
\@writefile{toc}{\addvspace {10\p@ }}
\@writefile{toc}{\contentsline {section}{\numberline {4.4}Indexed Bulletin Board}{28}{section.4.4}}
\@writefile{toc}{\addvspace {10\p@ }}
\@writefile{toc}{\contentsline {section}{\numberline {4.5}Ballot Casting}{29}{section.4.5}}
\@writefile{toc}{\addvspace {10\p@ }}
\@writefile{toc}{\contentsline {section}{\numberline {4.6}Tallying}{30}{section.4.6}}
\citation{scyther}
\citation{proverif}
\citation{avispa}
\citation{proverif}
\citation{norway}
\citation{delaune1}
\citation{delaune2}
\citation{delaune3}
\citation{jcj}
\citation{backes}
\citation{civitasproverif}
\citation{civitas}
\citation{backes}
\citation{acquisti}
\citation{acquistiproverif}
\citation{norway}
\citation{norwayproverif}
\citation{spycher}
\citation{jcj}
\citation{backes}
\citation{backes}
\@writefile{toc}{\contentsline {chapter}{\numberline {Chapter 5}Verifying the Proposed Protocol}{31}{chapter.5}}
\@writefile{toc}{\addvspace {10\p@ }}
\@writefile{lof}{\addvspace {10\p@ }}
\@writefile{lot}{\addvspace {10\p@ }}
\newlabel{chap:validation}{{5}{31}{Tallying}{chapter.5}{}}
\@writefile{toc}{\addvspace {10\p@ }}
\@writefile{toc}{\contentsline {section}{\numberline {5.1}Overview of ProVerif and Applied Pi Calculus}{31}{section.5.1}}
\@writefile{toc}{\addvspace {10\p@ }}
\citation{backeszk}
\@writefile{toc}{\contentsline {section}{\numberline {5.2}Syntax of Applied Pi Calculus}{32}{section.5.2}}
\citation{traces}
\citation{correspondanceassertions}
\@writefile{toc}{\addvspace {10\p@ }}
\@writefile{toc}{\contentsline {section}{\numberline {5.3}Modeling and Verifying the Protocol}{33}{section.5.3}}
\@writefile{toc}{\contentsline {subsection}{\numberline {5.3.1}Soundness}{33}{subsection.5.3.1}}
\citation{civitas}
\citation{nsl}
\citation{nslanalysis}
\citation{backes}
\citation{backes}
\citation{backes}
\citation{backes}
\citation{jcj}
\citation{benalohtunistra}
\@writefile{toc}{\contentsline {subsection}{\numberline {5.3.2}Coercion Resistance}{35}{subsection.5.3.2}}
\@writefile{lot}{\contentsline {table}{\numberline {5.1}{\ignorespaces Resist (or Indexed Juels, Catalano, and Jakobsson) Processes in the Applied Pi-calculus, derived from Backes et al.\nobreakspace  {}\cite  {backes}\relax }}{36}{table.caption.19}}
\newlabel{table:soundness}{{5.1}{36}{Resist (or Indexed Juels, Catalano, and Jakobsson) Processes in the Applied Pi-calculus, derived from Backes et al.~\cite {backes}\relax }{table.caption.19}{}}
\citation{backes}
\@writefile{lot}{\contentsline {table}{\numberline {5.2}{\ignorespaces Resist (or Indexed Juels, Catalano, and Jakobsson) Processes for Coercion Resistance, derived from Backes et al.\nobreakspace  {}\cite  {backes}\relax }}{37}{table.caption.20}}
\newlabel{table_Delays Derived q1}{{5.2}{37}{Resist (or Indexed Juels, Catalano, and Jakobsson) Processes for Coercion Resistance, derived from Backes et al.~\cite {backes}\relax }{table.caption.20}{}}
\citation{backes}
\citation{backes}
\citation{backeszk}
\citation{backes}
\@writefile{lof}{\contentsline {figure}{\numberline {5.1}{\ignorespaces Validating Resist for Soundness and Coercion Resistance using ProVerif\relax }}{39}{figure.caption.21}}
\newlabel{proverifoutputs}{{5.1}{39}{Validating Resist for Soundness and Coercion Resistance using ProVerif\relax }{figure.caption.21}{}}
\citation{diffiehellman}
\citation{RSA}
\citation{discretelogproblem}
\@writefile{toc}{\contentsline {chapter}{\numberline {Chapter 6}Algorithms in the Proposed Protocol}{41}{chapter.6}}
\@writefile{toc}{\addvspace {10\p@ }}
\@writefile{lof}{\addvspace {10\p@ }}
\@writefile{lot}{\addvspace {10\p@ }}
\newlabel{chap:algorithms}{{6}{41}{Coercion Resistance}{chapter.6}{}}
\@writefile{toc}{\addvspace {10\p@ }}
\@writefile{toc}{\contentsline {section}{\numberline {6.1}Concepts in Cryptographic Systems}{41}{section.6.1}}
\newlabel{sec:theoretical_concepts}{{6.1}{41}{Concepts in Cryptographic Systems}{section.6.1}{}}
\@writefile{toc}{\contentsline {subsection}{\numberline {6.1.1}Public Key Cryptography}{41}{subsection.6.1.1}}
\@writefile{toc}{\contentsline {subsubsection}{The Discrete Logarithm Problem}{42}{section*.22}}
\@writefile{toc}{\contentsline {subsubsection}{Parameter Generation}{42}{section*.23}}
\citation{dsa}
\@writefile{loa}{\contentsline {algocf}{\numberline {6.1.1}{\ignorespaces ElGamal Parameter Generation\relax }}{43}{algocf.6.1.1}}
\newlabel{parametergeneration}{{6.1.1}{43}{Parameter Generation}{algocf.6.1.1}{}}
\@writefile{toc}{\contentsline {subsubsection}{Key Generation}{43}{section*.25}}
\citation{elgamal}
\citation{cramershoup}
\@writefile{loa}{\contentsline {algocf}{\numberline {6.1.2}{\ignorespaces ElGamal Key Generation\relax }}{44}{algocf.6.1.2}}
\newlabel{keygeneration}{{6.1.2}{44}{Key Generation}{algocf.6.1.2}{}}
\@writefile{toc}{\contentsline {subsubsection}{Encode}{44}{section*.27}}
\citation{cca2}
\citation{elgamal}
\citation{elgamal}
\@writefile{loa}{\contentsline {algocf}{\numberline {6.1.3}{\ignorespaces Encode\relax }}{45}{algocf.6.1.3}}
\newlabel{encode}{{6.1.3}{45}{Encode}{algocf.6.1.3}{}}
\@writefile{toc}{\contentsline {subsubsection}{Encryption}{45}{section*.29}}
\@writefile{toc}{\contentsline {subsubsection}{Re-encryption}{45}{section*.31}}
\citation{fermat}
\@writefile{loa}{\contentsline {algocf}{\numberline {6.1.4}{\ignorespaces ElGamal Encryption\relax }}{46}{algocf.6.1.4}}
\newlabel{encrypt}{{6.1.4}{46}{Encryption}{algocf.6.1.4}{}}
\@writefile{toc}{\contentsline {subsubsection}{Decryption}{46}{section*.33}}
\citation{babystepgiantstep}
\citation{functionalsieve}
\citation{indexcalculus}
\@writefile{loa}{\contentsline {algocf}{\numberline {6.1.5}{\ignorespaces ElGamal Re-encryption\relax }}{47}{algocf.6.1.5}}
\newlabel{algo:reencrypt}{{6.1.5}{47}{Re-encryption}{algocf.6.1.5}{}}
\citation{hash}
\@writefile{loa}{\contentsline {algocf}{\numberline {6.1.6}{\ignorespaces ElGamal Decryption\relax }}{48}{algocf.6.1.6}}
\newlabel{decrypt}{{6.1.6}{48}{Decryption}{algocf.6.1.6}{}}
\@writefile{toc}{\contentsline {subsection}{\numberline {6.1.2}Commitments and Hashes}{48}{subsection.6.1.2}}
\citation{Schnorr1991}
\citation{eqdlogs}
\citation{civitas}
\citation{eqdlogs}
\@writefile{loa}{\contentsline {algocf}{\numberline {6.1.7}{\ignorespaces Commitment\relax }}{49}{algocf.6.1.7}}
\newlabel{commit}{{6.1.7}{49}{Commitments and Hashes}{algocf.6.1.7}{}}
\@writefile{toc}{\contentsline {subsection}{\numberline {6.1.3}Zero Knowledge Proofs}{49}{subsection.6.1.3}}
\newlabel{zkproofs}{{6.1.3}{49}{Zero Knowledge Proofs}{subsection.6.1.3}{}}
\@writefile{loa}{\contentsline {algocf}{\numberline {6.1.8}{\ignorespaces \textlangle \textbf  {Protocol}\textrangle \nobreakspace  {}KnowDlog\relax }}{50}{algocf.6.1.8}}
\newlabel{algo:knowdlog}{{6.1.8}{50}{Zero Knowledge Proofs}{algocf.6.1.8}{}}
\@writefile{toc}{\contentsline {subsection}{\numberline {6.1.4}Distributed Cryptosystem}{50}{subsection.6.1.4}}
\@writefile{loa}{\contentsline {algocf}{\numberline {6.1.9}{\ignorespaces \textlangle \textbf  {Protocol}\textrangle \nobreakspace  {}EqDlogs\relax }}{51}{algocf.6.1.9}}
\newlabel{algo:eqdlogs}{{6.1.9}{51}{Zero Knowledge Proofs}{algocf.6.1.9}{}}
\citation{civitas}
\@writefile{loa}{\contentsline {algocf}{\numberline {6.1.10}{\ignorespaces \textlangle \textbf  {Protocol}\textrangle \nobreakspace  {}Distributed ElGamal Key Generation\relax }}{52}{algocf.6.1.10}}
\newlabel{distkeygen}{{6.1.10}{52}{Distributed Cryptosystem}{algocf.6.1.10}{}}
\citation{civitas}
\citation{homomorphic}
\@writefile{loa}{\contentsline {algocf}{\numberline {6.1.11}{\ignorespaces Distributed ElGamal Decryption\relax }}{53}{algocf.6.1.11}}
\newlabel{algo:distdecrypt}{{6.1.11}{53}{Distributed Cryptosystem}{algocf.6.1.11}{}}
\citation{adida2006}
\citation{adida2006}
\citation{helios}
\@writefile{toc}{\contentsline {subsection}{\numberline {6.1.5}Homomorphic Encryption}{54}{subsection.6.1.5}}
\citation{mixnet}
\citation{mixnet}
\@writefile{toc}{\contentsline {subsection}{\numberline {6.1.6}Mixnets}{55}{subsection.6.1.6}}
\@writefile{loa}{\contentsline {algocf}{\numberline {6.1.12}{\ignorespaces Mix\relax }}{56}{algocf.6.1.12}}
\newlabel{mix}{{6.1.12}{56}{Mixnets}{algocf.6.1.12}{}}
\citation{mixnet}
\@writefile{toc}{\addvspace {10\p@ }}
\@writefile{toc}{\contentsline {section}{\numberline {6.2}Managing Credentials in Resist}{57}{section.6.2}}
\@writefile{toc}{\contentsline {subsection}{\numberline {6.2.1}Registration}{57}{subsection.6.2.1}}
\@writefile{toc}{\contentsline {subsubsection}{Credential Generation}{57}{section*.42}}
\@writefile{loa}{\contentsline {algocf}{\numberline {6.1.13}{\ignorespaces \textlangle \textbf  {Protocol}\textrangle \nobreakspace  {}MixNet\relax }}{58}{algocf.6.1.13}}
\newlabel{proto:mixnet}{{6.1.13}{58}{Mixnets}{algocf.6.1.13}{}}
\citation{Schnorr1991}
\citation{civitas}
\citation{Schnorr1991}
\citation{hirtandsako}
\citation{hirtandsako}
\@writefile{toc}{\contentsline {subsubsection}{Credential Encryption}{59}{section*.43}}
\@writefile{toc}{\contentsline {subsubsection}{Credential Verification}{59}{section*.45}}
\@writefile{toc}{\contentsline {subsubsection}{Digital Verifier Reencryption Proof}{59}{section*.47}}
\@writefile{loa}{\contentsline {algocf}{\numberline {6.2.1}{\ignorespaces Credential Encryption\relax }}{60}{algocf.6.2.1}}
\newlabel{algo:cred_encrypt}{{6.2.1}{60}{Credential Encryption}{algocf.6.2.1}{}}
\citation{nsl}
\citation{nslanalysis}
\citation{nsl}
\citation{nsl1}
\citation{hirtandsako}
\citation{jcj}
\@writefile{loa}{\contentsline {algocf}{\numberline {6.2.2}{\ignorespaces Credential Verification\relax }}{61}{algocf.6.2.2}}
\newlabel{algo:cred_verify}{{6.2.2}{61}{Credential Verification}{algocf.6.2.2}{}}
\@writefile{toc}{\contentsline {subsubsection}{Obtaining Credential Shares}{61}{section*.49}}
\@writefile{toc}{\contentsline {subsection}{\numberline {6.2.2}Fake Credentials}{61}{subsection.6.2.2}}
\@writefile{loa}{\contentsline {algocf}{\numberline {6.2.3}{\ignorespaces \textlangle \textbf  {Protocol}\textrangle \nobreakspace  {}Digital Verifier Reencryption Proof\relax }}{62}{algocf.6.2.3}}
\newlabel{algo:dvrp}{{6.2.3}{62}{Digital Verifier Reencryption Proof}{algocf.6.2.3}{}}
\@writefile{loa}{\contentsline {algocf}{\numberline {6.2.4}{\ignorespaces \textlangle \textbf  {Protocol}\textrangle \nobreakspace  {}Registering for an Election\relax }}{63}{algocf.6.2.4}}
\newlabel{algo:nsl}{{6.2.4}{63}{Obtaining Credential Shares}{algocf.6.2.4}{}}
\citation{hirtandsako}
\citation{civitas}
\citation{hirtandsako}
\citation{jcj}
\@writefile{toc}{\contentsline {subsubsection}{Creating Fake Credentials}{64}{section*.51}}
\@writefile{toc}{\addvspace {10\p@ }}
\@writefile{toc}{\contentsline {section}{\numberline {6.3}Casting a Vote}{64}{section.6.3}}
\newlabel{sec:casting}{{6.3}{64}{Casting a Vote}{section.6.3}{}}
\@writefile{loa}{\contentsline {algocf}{\numberline {6.2.5}{\ignorespaces \textlangle \textbf  {Protocol}\textrangle \nobreakspace  {}Fake DVRP\relax }}{65}{algocf.6.2.5}}
\newlabel{algo:fake_dvrp}{{6.2.5}{65}{Creating Fake Credentials}{algocf.6.2.5}{}}
\@writefile{loa}{\contentsline {algocf}{\numberline {6.2.6}{\ignorespaces Fake Credential\relax }}{66}{algocf.6.2.6}}
\newlabel{algo:fake_cred}{{6.2.6}{66}{Creating Fake Credentials}{algocf.6.2.6}{}}
\@writefile{loa}{\contentsline {algocf}{\numberline {6.3.1}{\ignorespaces \textlangle \textbf  {Protocol}\textrangle \nobreakspace  {}Reenc Proof\relax }}{67}{algocf.6.3.1}}
\newlabel{algo:reencpf}{{6.3.1}{67}{Casting a Vote}{algocf.6.3.1}{}}
\citation{camenisch}
\citation{jcj}
\citation{PET}
\citation{spycher}
\citation{civitas}
\@writefile{toc}{\addvspace {10\p@ }}
\@writefile{toc}{\contentsline {section}{\numberline {6.4}Tabulation}{68}{section.6.4}}
\@writefile{loa}{\contentsline {algocf}{\numberline {6.3.2}{\ignorespaces \textlangle \textbf  {Protocol}\textrangle \nobreakspace  {}Vote Proof\relax }}{69}{algocf.6.3.2}}
\newlabel{algo:votepf}{{6.3.2}{69}{Casting a Vote}{algocf.6.3.2}{}}
\@writefile{loa}{\contentsline {algocf}{\numberline {6.3.3}{\ignorespaces \textlangle \textbf  {Protocol}\textrangle \nobreakspace  {}Vote\relax }}{70}{algocf.6.3.3}}
\newlabel{algo:vote}{{6.3.3}{70}{Casting a Vote}{algocf.6.3.3}{}}
\@writefile{loa}{\contentsline {algocf}{\numberline {6.4.1}{\ignorespaces \textlangle \textbf  {Protocol}\textrangle \nobreakspace  {}Plaintext Equivalence Test\relax }}{71}{algocf.6.4.1}}
\newlabel{algo:pet}{{6.4.1}{71}{Tabulation}{algocf.6.4.1}{}}
\@writefile{loa}{\contentsline {algocf}{\numberline {6.4.2}{\ignorespaces \textlangle \textbf  {Protocol}\textrangle \nobreakspace  {}Tabulate\relax }}{72}{algocf.6.4.2}}
\newlabel{algo:tally}{{6.4.2}{72}{Tabulation}{algocf.6.4.2}{}}
\citation{django}
\@writefile{toc}{\contentsline {chapter}{\numberline {Chapter 7}System Implementation}{73}{chapter.7}}
\@writefile{toc}{\addvspace {10\p@ }}
\@writefile{lof}{\addvspace {10\p@ }}
\@writefile{lot}{\addvspace {10\p@ }}
\newlabel{chap:implementation}{{7}{73}{Tabulation}{chapter.7}{}}
\@writefile{toc}{\addvspace {10\p@ }}
\@writefile{toc}{\contentsline {section}{\numberline {7.1}The Django Framework}{73}{section.7.1}}
\citation{postgresbook}
\@writefile{toc}{\addvspace {10\p@ }}
\@writefile{toc}{\contentsline {section}{\numberline {7.2}PostgreSQL as a Database}{74}{section.7.2}}
\citation{python}
\citation{redmonk}
\@writefile{toc}{\addvspace {10\p@ }}
\@writefile{toc}{\contentsline {section}{\numberline {7.3}Languages}{75}{section.7.3}}
\@writefile{toc}{\contentsline {subsubsection}{Python}{75}{section*.59}}
\citation{javascript}
\citation{jsvulnerabilities}
\@writefile{toc}{\contentsline {subsubsection}{VanillaJS}{76}{section*.60}}
\@writefile{toc}{\contentsline {subsubsection}{Cryptographic Libraries}{76}{section*.61}}
\@writefile{toc}{\addvspace {10\p@ }}
\@writefile{toc}{\contentsline {section}{\numberline {7.4}Object Notations}{77}{section.7.4}}
\@writefile{toc}{\contentsline {subsection}{\numberline {7.4.1}JSON}{77}{subsection.7.4.1}}
\citation{pyintsupport}
\citation{helios}
\@writefile{toc}{\contentsline {subsection}{\numberline {7.4.2}Integers, BigIntegers, and Arrays}{80}{subsection.7.4.2}}
\@writefile{toc}{\addvspace {10\p@ }}
\@writefile{toc}{\contentsline {section}{\numberline {7.5}Modeling Theoretical Concepts}{81}{section.7.5}}
\@writefile{toc}{\contentsline {subsection}{\numberline {7.5.1}Users, Privileges, and Groups}{81}{subsection.7.5.1}}
\@writefile{toc}{\contentsline {subsection}{\numberline {7.5.2}Implementing the Bulletin Board}{82}{subsection.7.5.2}}
\@writefile{toc}{\contentsline {subsection}{\numberline {7.5.3}Supervisor}{83}{subsection.7.5.3}}
\@writefile{toc}{\contentsline {subsection}{\numberline {7.5.4}Voter Lists}{83}{subsection.7.5.4}}
\@writefile{toc}{\contentsline {subsection}{\numberline {7.5.5}Registration Tellers}{84}{subsection.7.5.5}}
\@writefile{toc}{\contentsline {subsection}{\numberline {7.5.6}Casting a Vote}{85}{subsection.7.5.6}}
\@writefile{toc}{\contentsline {subsection}{\numberline {7.5.7}Tabulation Tellers}{86}{subsection.7.5.7}}
\@writefile{lof}{\contentsline {figure}{\numberline {7.1}{\ignorespaces Visual Representation of the User Model in Django}}{87}{figure.caption.62}}
\newlabel{fig:user_model}{{7.1}{87}{Visual Representation of the User Model in Django}{figure.caption.62}{}}
\@writefile{lof}{\contentsline {figure}{\numberline {7.2}{\ignorespaces Customizing the User Model for Tabulation Tellers and Registration Tellers}}{88}{figure.caption.63}}
\newlabel{fig:rt_tt_private}{{7.2}{88}{Customizing the User Model for Tabulation Tellers and Registration Tellers}{figure.caption.63}{}}
\@writefile{lof}{\contentsline {figure}{\numberline {7.3}{\ignorespaces The \texttt  {bulletin} Model for an Election}}{89}{figure.caption.64}}
\newlabel{fig:bulletin_election_model}{{7.3}{89}{The \texttt {bulletin} Model for an Election}{figure.caption.64}{}}
\newlabel{fig:supervisor_front_page}{{\caption@xref {fig:supervisor_front_page}{ on input line 2326}}{90}{Supervisor}{figure.caption.65}{}}
\newlabel{fig:supervisor_front_page}{{\caption@xref {fig:supervisor_front_page}{ on input line 2342}}{91}{Supervisor}{figure.caption.66}{}}
\@writefile{lof}{\contentsline {figure}{\numberline {7.4}{\ignorespaces Supervisor to Admin Panel}}{92}{figure.caption.67}}
\newlabel{fig:supervisor_front_page}{{7.4}{92}{Supervisor to Admin Panel}{figure.caption.67}{}}
\@writefile{lof}{\contentsline {figure}{\numberline {7.5}{\ignorespaces Managing Existing Elections\relax }}{93}{figure.caption.68}}
\newlabel{fig:managing_elections}{{7.5}{93}{Managing Existing Elections\relax }{figure.caption.68}{}}
\@writefile{lof}{\contentsline {figure}{\numberline {7.6}{\ignorespaces Creating an Election's Public Key\relax }}{94}{figure.caption.69}}
\newlabel{fig:create_pubic_key}{{7.6}{94}{Creating an Election's Public Key\relax }{figure.caption.69}{}}
\@writefile{lof}{\contentsline {figure}{\numberline {7.7}{\ignorespaces Visual Representation of the Eligible Voter, Authenticated Voter, and Registered Voter Models in Django}}{95}{figure.caption.70}}
\newlabel{fig:voter_list}{{7.7}{95}{Visual Representation of the Eligible Voter, Authenticated Voter, and Registered Voter Models in Django}{figure.caption.70}{}}
\@writefile{lof}{\contentsline {figure}{\numberline {7.8}{\ignorespaces Registering for an election\relax }}{96}{figure.caption.71}}
\newlabel{fig:register_election}{{7.8}{96}{Registering for an election\relax }{figure.caption.71}{}}
\@writefile{lof}{\contentsline {figure}{\numberline {7.9}{\ignorespaces Visual Representation of the Credential and Credential Share Models in Django}}{97}{figure.caption.72}}
\newlabel{fig:credential_model}{{7.9}{97}{Visual Representation of the Credential and Credential Share Models in Django}{figure.caption.72}{}}
\@writefile{lof}{\contentsline {figure}{\numberline {7.10}{\ignorespaces Obtaining Credentials and Credential Shares for an Election\relax }}{98}{figure.caption.73}}
\newlabel{fig:credential_download}{{7.10}{98}{Obtaining Credentials and Credential Shares for an Election\relax }{figure.caption.73}{}}
\@writefile{lof}{\contentsline {figure}{\numberline {7.11}{\ignorespaces Choosing an Election Ballot to Audit or Mark\relax }}{99}{figure.caption.74}}
\newlabel{fig:vote_index}{{7.11}{99}{Choosing an Election Ballot to Audit or Mark\relax }{figure.caption.74}{}}
\@writefile{lof}{\contentsline {figure}{\numberline {7.12}{\ignorespaces Election Metadata}}{100}{figure.caption.75}}
\newlabel{fig:vote_details}{{7.12}{100}{Election Metadata}{figure.caption.75}{}}
\@writefile{lof}{\contentsline {figure}{\numberline {7.13}{\ignorespaces Displaying Questions and Choices}}{100}{figure.caption.76}}
\newlabel{fig:vote_question}{{7.13}{100}{Displaying Questions and Choices}{figure.caption.76}{}}
\@writefile{lof}{\contentsline {figure}{\numberline {7.14}{\ignorespaces Ballot Review}}{101}{figure.caption.77}}
\newlabel{fig:vote_review}{{7.14}{101}{Ballot Review}{figure.caption.77}{}}
\@writefile{lof}{\contentsline {figure}{\numberline {7.15}{\ignorespaces Encrypted Choices}}{101}{figure.caption.78}}
\newlabel{fig:vote_encrypted_choices}{{7.15}{101}{Encrypted Choices}{figure.caption.78}{}}
\@writefile{lof}{\contentsline {figure}{\numberline {7.16}{\ignorespaces Uploading a Credential}}{102}{figure.caption.79}}
\newlabel{fig:vote_import_credential}{{7.16}{102}{Uploading a Credential}{figure.caption.79}{}}
\@writefile{lof}{\contentsline {figure}{\numberline {7.17}{\ignorespaces Reviewing Complete Encrypted Ballot}}{102}{figure.caption.80}}
\newlabel{fig:vote_encrypted_ballot}{{7.17}{102}{Reviewing Complete Encrypted Ballot}{figure.caption.80}{}}
\@writefile{lof}{\contentsline {figure}{\numberline {7.18}{\ignorespaces The Database setup for tallying of votes}}{103}{figure.caption.81}}
\newlabel{fig:tally_model}{{7.18}{103}{The Database setup for tallying of votes}{figure.caption.81}{}}
\citation{jcj}
\citation{araujo1}
\citation{selections}
\citation{selections}
\citation{selections}
\@writefile{toc}{\contentsline {chapter}{\numberline {Chapter 8}Evaluation}{104}{chapter.8}}
\@writefile{toc}{\addvspace {10\p@ }}
\@writefile{lof}{\addvspace {10\p@ }}
\@writefile{lot}{\addvspace {10\p@ }}
\newlabel{chap:evaluating}{{8}{104}{Tabulation Tellers}{chapter.8}{}}
\@writefile{toc}{\addvspace {10\p@ }}
\@writefile{toc}{\contentsline {section}{\numberline {8.1}By Number of Modular Exponentiations}{104}{section.8.1}}
\citation{jcj}
\citation{araujo1}
\citation{selections}
\newlabel{table:performance_mod}{{\caption@xref {table:performance_mod}{ on input line 2603}}{106}{By Number of Modular Exponentiations}{table.caption.82}{}}
\@writefile{lot}{\contentsline {table}{\numberline {8.1}{\ignorespaces Comparison of Resist's Performance, measured by modular exponentiations\relax }}{106}{table.caption.82}}
\@writefile{toc}{\addvspace {10\p@ }}
\@writefile{toc}{\contentsline {section}{\numberline {8.2}Timing Measurements}{106}{section.8.2}}
\newlabel{table:performance_time}{{\caption@xref {table:performance_time}{ on input line 2659}}{107}{Timing Measurements}{table.caption.83}{}}
\@writefile{lot}{\contentsline {table}{\numberline {8.2}{\ignorespaces Timing Measurements\relax }}{107}{table.caption.83}}
\@writefile{toc}{\contentsline {chapter}{\numberline {Chapter 9}Conclusion and Future Work}{108}{chapter.9}}
\@writefile{toc}{\addvspace {10\p@ }}
\@writefile{lof}{\addvspace {10\p@ }}
\@writefile{lot}{\addvspace {10\p@ }}
\newlabel{chap:discussion}{{9}{108}{Timing Measurements}{chapter.9}{}}
\@writefile{toc}{\addvspace {10\p@ }}
\@writefile{toc}{\contentsline {section}{\numberline {9.1}Conclusion}{108}{section.9.1}}
\@writefile{toc}{\addvspace {10\p@ }}
\citation{benalohchallenge}
\@writefile{toc}{\contentsline {section}{\numberline {9.2}Limitations}{109}{section.9.2}}
\@writefile{toc}{\addvspace {10\p@ }}
\@writefile{toc}{\contentsline {section}{\numberline {9.3}Extensions}{109}{section.9.3}}
\citation{anywhere1}
\citation{anywhere2}
\citation{aria}
\citation{publicevidence}
\citation{civitas}
\bibstyle{IEEEtran}
\bibdata{simple.bib}
\bibcite{backes}{1}
\bibcite{estonia1}{2}
\bibcite{estonia2}{3}
\bibcite{southafrica}{4}
\bibcite{brazil}{5}
\bibcite{india}{6}
\bibcite{csereport}{7}
\bibcite{secthevote}{8}
\bibcite{floridarecount}{9}
\bibcite{steinrecount}{10}
\@writefile{toc}{\contentsline {chapter}{Bibliography}{111}{chapter*.84}}
\bibcite{jnu}{11}
\bibcite{jcj}{12}
\bibcite{jif}{13}
\bibcite{civitas}{14}
\bibcite{smith1}{15}
\bibcite{smith2}{16}
\bibcite{smith3}{17}
\bibcite{araujo1}{18}
\bibcite{araujo2}{19}
\bibcite{araujo3}{20}
\bibcite{spycher}{21}
\bibcite{hansen1999athenian}{22}
\bibcite{medievalvenice}{23}
\bibcite{caleb}{24}
\bibcite{canadavoting}{25}
\bibcite{canadavoting2}{26}
\bibcite{canadavoting3}{27}
\bibcite{victoria}{28}
\bibcite{newyork1892}{29}
\bibcite{punchcard1960}{30}
\bibcite{harris1966}{31}
\bibcite{punchscan}{32}
\bibcite{adida2006}{33}
\bibcite{publicevidence}{34}
\bibcite{warren}{35}
\bibcite{Norden}{36}
\bibcite{MarkSense}{37}
\bibcite{kiayias2006security}{38}
\bibcite{adida2019}{39}
\bibcite{malaysia}{40}
\bibcite{germany}{41}
\bibcite{netherlands}{42}
\bibcite{ireland}{43}
\bibcite{UK}{44}
\bibcite{dreaccessibility}{45}
\bibcite{dre}{46}
\bibcite{bmdre}{47}
\bibcite{InternetVoting1}{48}
\bibcite{selene}{49}
\bibcite{benalohchallenge}{50}
\bibcite{hirtandsako}{51}
\bibcite{helios}{52}
\bibcite{heliosuni}{53}
\bibcite{pret}{54}
\bibcite{chaumuntraceable}{55}
\bibcite{scantegrity}{56}
\bibcite{smithattack}{57}
\bibcite{camenisch}{58}
\bibcite{selections}{59}
\bibcite{panicpasswords}{60}
\bibcite{scyther}{61}
\bibcite{proverif}{62}
\bibcite{avispa}{63}
\bibcite{norway}{64}
\bibcite{delaune1}{65}
\bibcite{delaune2}{66}
\bibcite{delaune3}{67}
\bibcite{civitasproverif}{68}
\bibcite{acquisti}{69}
\bibcite{acquistiproverif}{70}
\bibcite{norwayproverif}{71}
\bibcite{backeszk}{72}
\bibcite{traces}{73}
\bibcite{correspondanceassertions}{74}
\bibcite{nsl}{75}
\bibcite{nslanalysis}{76}
\bibcite{benalohtunistra}{77}
\bibcite{diffiehellman}{78}
\bibcite{RSA}{79}
\bibcite{discretelogproblem}{80}
\bibcite{dsa}{81}
\bibcite{elgamal}{82}
\bibcite{cramershoup}{83}
\bibcite{cca2}{84}
\bibcite{fermat}{85}
\bibcite{babystepgiantstep}{86}
\bibcite{functionalsieve}{87}
\bibcite{indexcalculus}{88}
\bibcite{hash}{89}
\bibcite{Schnorr1991}{90}
\bibcite{eqdlogs}{91}
\bibcite{homomorphic}{92}
\bibcite{mixnet}{93}
\bibcite{nsl1}{94}
\bibcite{PET}{95}
\bibcite{django}{96}
\bibcite{postgresbook}{97}
\bibcite{python}{98}
\bibcite{redmonk}{99}
\bibcite{javascript}{100}
\bibcite{jsvulnerabilities}{101}
\bibcite{pyintsupport}{102}
\bibcite{anywhere1}{103}
\bibcite{anywhere2}{104}
\bibcite{aria}{105}
